{
	"sbw@sbw.so":         "鄂_开发_石博文",
	"kirigaya@mkacg.com": "鄂_开发_张丁元",
	"leaeasy@gmail.com":  "鄂_开发_黎龙宇",
	"878694891@qq.com":   "鄂_开发_唐彤",
	"mr.asianwang@gmail.com": "鄂_开发_王耀华",
	"ccrr1314@live.com": "鄂_开发_张继德",
	"yinshuiboy@gmail.com": "京_研发_曹思源",
	"xushaohua@deepin.com": "鄂_开发_许少华",
	"ding465398889@163.com": "鄂_开发_丁江锋",
	"jouyouwen717@gmail.com": "鄂_开发_闫博文",
	"songwentai@deepin.com": "鄂_开发_宋文泰",
	"me@iceyer.net": "鄂_开发_李鹤",
	"zhangshuang@linuxdeepin.com": "鄂_开发_张爽"
}
